Homework8: Basic Modeling Practice
…
Rows: 8760 Columns: 14
── Column specification ────────────────────────────────────────────────────────
Delimiter: ","
chr  (4): Date, Seasons, Holiday, Functioning Day
dbl (10): Rented Bike Count, Hour, Temperature(°C), Humidity(%), Wind speed ...

ℹ Use `spec()` to retrieve the full column specification for this data.
ℹ Specify the column types or set `show_col_types = FALSE` to quiet this message.

Bike_data

# A tibble: 8,760 × 14
   Date       `Rented Bike Count`  Hour `Temperature(°C)` `Humidity(%)`
   <chr>                    <dbl> <dbl>             <dbl>         <dbl>
 1 01/12/2017                 254     0              -5.2            37
 2 01/12/2017                 204     1              -5.5            38
 3 01/12/2017                 173     2              -6              39
 4 01/12/2017                 107     3              -6.2            40
 5 01/12/2017                  78     4              -6              36
 6 01/12/2017                 100     5              -6.4            37
 7 01/12/2017                 181     6              -6.6            35
 8 01/12/2017                 460     7              -7.4            38
 9 01/12/2017                 930     8              -7.6            37
10 01/12/2017                 490     9              -6.5            27
# ℹ 8,750 more rows
# ℹ 9 more variables: `Wind speed (m/s)` <dbl>, `Visibility (10m)` <dbl>,
#   `Dew point temperature(°C)` <dbl>, `Solar Radiation (MJ/m2)` <dbl>,
#   `Rainfall(mm)` <dbl>, `Snowfall (cm)` <dbl>, Seasons <chr>, Holiday <chr>,
#   `Functioning Day` <chr>
…
we have three categorical variables with the above unique values.

# 3. change character date to date format

Bike_data$Date <- dmy(Bike_data$Date)

# 4.turn Seasons, Holiday, and Functioning Day to factor
 
Bike_data <- Bike_data %>%
  mutate(Seasons = as.factor(Seasons))%>%
  mutate(Holiday = as.factor(Holiday)) %>%
  mutate(`Functioning Day` = as.factor(`Functioning Day`))
Bike_data

# A tibble: 8,760 × 14
   Date       `Rented Bike Count`  Hour `Temperature(°C)` `Humidity(%)`
   <date>                   <dbl> <dbl>             <dbl>         <dbl>
 1 2017-12-01                 254     0              -5.2            37
 2 2017-12-01                 204     1              -5.5            38
 3 2017-12-01                 173     2              -6              39
 4 2017-12-01                 107     3              -6.2            40
 5 2017-12-01                  78     4              -6              36
 6 2017-12-01                 100     5              -6.4            37
 7 2017-12-01                 181     6              -6.6            35
 8 2017-12-01                 460     7              -7.4            38
 9 2017-12-01                 930     8              -7.6            37
10 2017-12-01                 490     9              -6.5            27
# ℹ 8,750 more rows
# ℹ 9 more variables: `Wind speed (m/s)` <dbl>, `Visibility (10m)` <dbl>,
#   `Dew point temperature(°C)` <dbl>, `Solar Radiation (MJ/m2)` <dbl>,
#   `Rainfall(mm)` <dbl>, `Snowfall (cm)` <dbl>, Seasons <fct>, Holiday <fct>,
#   `Functioning Day` <fct>

# 5. give a cleaner variable names, strip the units from the variables that have units at the end to make it easy to use.
Bike_data <- Bike_data %>%
  clean_names(case = "snake")%>%
  rename_with(~ str_remove_all(., "_?(c|%|m_s|mj_m2|10m|cm|mm|min|m|percent)$"))
Bike_data

# A tibble: 8,760 × 14
   date       rented_bike_count  hour temperature humidity wind_speed visibility
   <date>                 <dbl> <dbl>       <dbl>    <dbl>      <dbl>      <dbl>
 1 2017-12-01               254     0        -5.2       37        2.2       2000
 2 2017-12-01               204     1        -5.5       38        0.8       2000
 3 2017-12-01               173     2        -6         39        1         2000
 4 2017-12-01               107     3        -6.2       40        0.9       2000
 5 2017-12-01                78     4        -6         36        2.3       2000
 6 2017-12-01               100     5        -6.4       37        1.5       2000
 7 2017-12-01               181     6        -6.6       35        1.3       2000
 8 2017-12-01               460     7        -7.4       38        0.9       2000
 9 2017-12-01               930     8        -7.6       37        1.1       2000
10 2017-12-01               490     9        -6.5       27        0.5       1928
# ℹ 8,750 more rows
# ℹ 7 more variables: dew_point_temperature <dbl>, solar_radiation <dbl>,
#   rainfall <dbl>, snowfall <dbl>, seasons <fct>, holiday <fct>,
#   functioning_day <fct>
…
# A tibble: 2 × 5
  functioning_day mean_count median_count sd_count     n
  <fct>                <dbl>        <dbl>    <dbl> <int>
1 No                      0             0       0    295
2 Yes                   729.          542     642.  8465

Based on the summary output, we can see that the average number of bike rental was the highest during summer season.Also, it indicates that bike rental is generally higher on regular days compared to holidays. we should note that the bike rental count is 0 where the functioning_day is “No” which means the stations were closed on non-functioning days, thus it makes sense to subset the data to ONLY functioning days before further analysis.

#sub-setting the data for functioning_day == "Yes" 

Bike_data2 <- Bike_data|>filter(functioning_day == "Yes")
Bike_data2

# A tibble: 8,465 × 14
   date       rented_bike_count  hour temperature humidity wind_speed visibility
   <date>                 <dbl> <dbl>       <dbl>    <dbl>      <dbl>      <dbl>
 1 2017-12-01               254     0        -5.2       37        2.2       2000
 2 2017-12-01               204     1        -5.5       38        0.8       2000
 3 2017-12-01               173     2        -6         39        1         2000
 4 2017-12-01               107     3        -6.2       40        0.9       2000
 5 2017-12-01                78     4        -6         36        2.3       2000
 6 2017-12-01               100     5        -6.4       37        1.5       2000
 7 2017-12-01               181     6        -6.6       35        1.3       2000
 8 2017-12-01               460     7        -7.4       38        0.9       2000
 9 2017-12-01               930     8        -7.6       37        1.1       2000
10 2017-12-01               490     9        -6.5       27        0.5       1928
# ℹ 8,455 more rows
# ℹ 7 more variables: dew_point_temperature <dbl>, solar_radiation <dbl>,
#   rainfall <dbl>, snowfall <dbl>, seasons <fct>, holiday <fct>,
#   functioning_day <fct>
…
)%>%
  ungroup()

`summarise()` has grouped output by 'date', 'seasons'. You can override using
the `.groups` argument.

sumry

# A tibble: 353 × 12
   date       seasons holiday    tot_rented_bike_count tot_rainfall tot_snowfall
   <date>     <fct>   <fct>                      <dbl>        <dbl>        <dbl>
 1 2017-12-01 Winter  No Holiday                  9539          0            0  
 2 2017-12-02 Winter  No Holiday                  8523          0            0  
 3 2017-12-03 Winter  No Holiday                  7222          4            0  
 4 2017-12-04 Winter  No Holiday                  8729          0.1          0  
 5 2017-12-05 Winter  No Holiday                  8307          0            0  
 6 2017-12-06 Winter  No Holiday                  6669          1.3          8.6
 7 2017-12-07 Winter  No Holiday                  8549          0           10.4
 8 2017-12-08 Winter  No Holiday                  8032          0            0  
 9 2017-12-09 Winter  No Holiday                  7233          0            0  
10 2017-12-10 Winter  No Holiday                  3453          4.1         32.5
# ℹ 343 more rows
# ℹ 6 more variables: mean_temperature <dbl>, mean_humidity <dbl>,
#   mean_wind_speed <dbl>, mean_visibility <dbl>,
#   mean_dew_point_temperature <dbl>, mean_solar_radiation <dbl>
…
final_fit <- last_fit(best_wf, split = Bike_split, metrics = metric_set(rmse))
collect_metrics(final_fit)

# A tibble: 1 × 4
  .metric .estimator .estimate .config        
  <chr>   <chr>          <dbl> <chr>          
1 rmse    standard       3003. pre0_mod0_post0

Finally, we Obtained coefficient table using extract_fit_parsnip()and tidy().

final_model <- extract_fit_parsnip(final_fit)
tidy(final_model)

# A tibble: 30 × 5
   term                                estimate std.error statistic   p.value
   <chr>                                  <dbl>     <dbl>     <dbl>     <dbl>
 1 (Intercept)                           17450.      169.   103.    2.11e-196
 2 seasons_Spring                        -3923.     1363.    -2.88  4.36e-  3
 3 seasons_Summer                        13374.     2292.     5.84  1.78e-  8
 4 seasons_Winter                        -1579.     1102.    -1.43  1.53e-  1
 5 holiday_No.Holiday                      900.      376.     2.40  1.74e-  2
 6 day_type_weekend                       -927.      175.    -5.31  2.61e-  7
 7 seasons_Spring_x_holiday_No.Holiday    -282.     1183.    -0.239 8.12e-  1
 8 seasons_Summer_x_holiday_No.Holiday    -285.     1132.    -0.251 8.02e-  1
 9 seasons_Winter_x_holiday_No.Holiday    -540.      854.    -0.633 5.28e-  1
10 seasons_Spring_x_mean_temperature      2582.      625.     4.13  5.04e-  5
# ℹ 20 more rows
…
